^C:\JMURCIA\PRUEBAS\AURAPORTAL_TRANSFERRERDOCDICTIONARYLIBRARY\AURAPORTAL_TRANSFERRERDOCDICTIONARYLIBRARY\FORM1.RESX
^C:\JMURCIA\PRUEBAS\AURAPORTAL_TRANSFERRERDOCDICTIONARYLIBRARY\AURAPORTAL_TRANSFERRERDOCDICTIONARYLIBRARY\PROPERTIES\RESOURCES.RESX
^C:\AURAPORTAL_TRANSFERRERDOCDICTIONARYLIBRARY\AURAPORTAL_TRANSFERRERDOCDICTIONARYLIBRARY\FORM1.RESX
^C:\AURAPORTAL_TRANSFERRERDOCDICTIONARYLIBRARY\AURAPORTAL_TRANSFERRERDOCDICTIONARYLIBRARY\PROPERTIES\RESOURCES.RESX
