^C:\JMURCIA\PRUEBAS\AURAPORTAL_UPDATEDOCDICTIONARYLIBRARYLABELS\AURAPORTAL_UPDATEDOCDICTIONARYLIBRARYLABELS\FORM1.RESX|C:\JMURCIA\PRUEBAS\AURAPORTAL_UPDATEDOCDICTIONARYLIBRARYLABELS\AURAPORTAL_UPDATEDOCDICTIONARYLIBRARYLABELS\PROPERTIES\RESOURCES.RESX
C:\JMURCIA\PRUEBAS\AURAPORTAL_UPDATEDOCDICTIONARYLIBRARYLABELS\AURAPORTAL_UPDATEDOCDICTIONARYLIBRARYLABELS\OBJ\X86\DEBUG\AURAPORTAL_UPDATEDOCDICTIONARYLIBRARYLABELS.FORM1.RESOURCES
C:\JMURCIA\PRUEBAS\AURAPORTAL_UPDATEDOCDICTIONARYLIBRARYLABELS\AURAPORTAL_UPDATEDOCDICTIONARYLIBRARYLABELS\OBJ\X86\DEBUG\AURAPORTAL_DOCDICTIONARYLIBRARY.FORM1.RESOURCES
C:\JMURCIA\PRUEBAS\AURAPORTAL_UPDATEDOCDICTIONARYLIBRARYLABELS\AURAPORTAL_UPDATEDOCDICTIONARYLIBRARYLABELS\OBJ\X86\DEBUG\AURAPORTAL_DOCDICTIONARYLIBRARY.PROPERTIES.RESOURCES.RESOURCES
^C:\JMURCIA\PRUEBAS\AURAPORTAL_UPDATEDOCDICTIONARYLIBRARYLABELS\AURAPORTAL_UPDATEDOCDICTIONARYLIBRARYLABELS\FORM1.RESX
C:\JMURCIA\PRUEBAS\AURAPORTAL_UPDATEDOCDICTIONARYLIBRARYLABELS\AURAPORTAL_UPDATEDOCDICTIONARYLIBRARYLABELS\OBJ\X86\DEBUG\AURAPORTAL_DOCDICTIONARYLIBRARY.FORM1.RESOURCES
